…
Attaching package: ‘rstan’

The following object is masked from ‘package:tidyr’:

    extract

# A tibble: 26,001 × 9
   estado fecha      positivos_leves positivos_graves negativos_leves
   <chr>  <date>               <int>            <int>           <int>
 1 01     2020-01-01               0                0               0
 2 01     2020-01-03               0                0               0
 3 01     2020-01-04               0                0               0
 4 01     2020-01-05               0                0               1
 5 01     2020-01-06               0                0               1
 6 01     2020-01-07               0                0               0
 7 01     2020-01-08               0                0               1
 8 01     2020-01-09               0                0               2
 9 01     2020-01-10               0                0               1
10 01     2020-01-11               0                0               0
# … with 25,991 more rows, and 4 more variables: negativos_graves <int>,
#   sospechosos_leves <int>, sospechosos_graves <int>, n_pacientes <int>
…
Samples were drawn using NUTS(diag_e) at Tue Mar 29 21:18:28 2022.
For each parameter, n_eff is a crude measure of effective sample size,
and Rhat is the potential scale reduction factor on split chains (at 
convergence, Rhat=1).
           S            E            I            R            t 
9.999680e-01 1.601036e-05 1.601036e-05 0.000000e+00 0.000000e+00 
# A tibble: 800 × 14
   fecha_estimacion fecha      nuevos_mu_10 nuevos_mu_50 nuevos_mu_90 acum_mu_10
   <date>           <date>            <dbl>        <dbl>        <dbl>      <dbl>
 1 2022-03-29       2020-03-01        2046         2046         2046       2046 
 2 2022-03-29       2020-03-02         451.         454.         456.      2497.
 3 2022-03-29       2020-03-03         551.         557.         565.      3049.
 4 2022-03-29       2020-03-04         644.         654.         667.      3693.
 5 2022-03-29       2020-03-05         736.         751.         770.      4429.
 6 2022-03-29       2020-03-06         832.         852.         877.      5261.
 7 2022-03-29       2020-03-07         935.         960.         994.      6196.
 8 2022-03-29       2020-03-08        1048.        1080.        1123.      7244.
 9 2022-03-29       2020-03-09        1172.        1212.        1266.      8417.
10 2022-03-29       2020-03-10        1310.        1359.        1426.      9726.
# … with 790 more rows, and 8 more variables: acum_mu_50 <dbl>,
#   acum_mu_90 <dbl>, nuevos_obs_10 <int>, nuevos_obs_50 <dbl>,
#   nuevos_obs_90 <int>, acum_obs_10 <int>, acum_obs_50 <dbl>,
#   acum_obs_90 <int>
…
